^C:\USERS\АЛИК\DOCUMENTS\VISUAL STUDIO 2015\PROJECTS\ARRAYS\ARRAYS\X64\RELEASE\ARRAYS.OBJ|C:\USERS\АЛИК\DOCUMENTS\VISUAL STUDIO 2015\PROJECTS\ARRAYS\ARRAYS\X64\RELEASE\MYARRAY.OBJ|C:\USERS\АЛИК\DOCUMENTS\VISUAL STUDIO 2015\PROJECTS\ARRAYS\ARRAYS\X64\RELEASE\STDAFX.OBJ
C:\USERS\Алик\DOCUMENTS\VISUAL STUDIO 2015\PROJECTS\ARRAYS\X64\RELEASE\ARRAYS.EXE
C:\USERS\Алик\DOCUMENTS\VISUAL STUDIO 2015\PROJECTS\ARRAYS\X64\RELEASE\ARRAYS.IPDB
C:\USERS\Алик\DOCUMENTS\VISUAL STUDIO 2015\PROJECTS\ARRAYS\X64\RELEASE\ARRAYS.IOBJ
C:\USERS\АЛИК\DOCUMENTS\VISUAL STUDIO 2015\PROJECTS\ARRAYS\X64\RELEASE\ARRAYS.PDB
