^C:\USERS\АЛИК\DOCUMENTS\VISUAL STUDIO 2015\PROJECTS\ARRAYS\ARRAYS\X64\RELEASE\ARRAYS.OBJ|C:\USERS\АЛИК\DOCUMENTS\VISUAL STUDIO 2015\PROJECTS\ARRAYS\ARRAYS\X64\RELEASE\MYARRAY.OBJ|C:\USERS\АЛИК\DOCUMENTS\VISUAL STUDIO 2015\PROJECTS\ARRAYS\ARRAYS\X64\RELEASE\STDAFX.OBJ
C:\WINDOWS\GLOBALIZATION\SORTING\SORTDEFAULT.NLS
C:\PROGRAM FILES (X86)\WINDOWS KITS\8.1\LIB\WINV6.3\UM\X64\KERNEL32.LIB
C:\PROGRAM FILES (X86)\WINDOWS KITS\8.1\LIB\WINV6.3\UM\X64\USER32.LIB
C:\PROGRAM FILES (X86)\WINDOWS KITS\8.1\LIB\WINV6.3\UM\X64\GDI32.LIB
C:\PROGRAM FILES (X86)\WINDOWS KITS\8.1\LIB\WINV6.3\UM\X64\WINSPOOL.LIB
C:\PROGRAM FILES (X86)\WINDOWS KITS\8.1\LIB\WINV6.3\UM\X64\COMDLG32.LIB
C:\PROGRAM FILES (X86)\WINDOWS KITS\8.1\LIB\WINV6.3\UM\X64\ADVAPI32.LIB
C:\PROGRAM FILES (X86)\WINDOWS KITS\8.1\LIB\WINV6.3\UM\X64\SHELL32.LIB
C:\PROGRAM FILES (X86)\WINDOWS KITS\8.1\LIB\WINV6.3\UM\X64\OLE32.LIB
C:\PROGRAM FILES (X86)\WINDOWS KITS\8.1\LIB\WINV6.3\UM\X64\OLEAUT32.LIB
C:\PROGRAM FILES (X86)\WINDOWS KITS\8.1\LIB\WINV6.3\UM\X64\UUID.LIB
C:\PROGRAM FILES (X86)\WINDOWS KITS\8.1\LIB\WINV6.3\UM\X64\ODBC32.LIB
C:\PROGRAM FILES (X86)\WINDOWS KITS\8.1\LIB\WINV6.3\UM\X64\ODBCCP32.LIB
C:\USERS\Алик\DOCUMENTS\VISUAL STUDIO 2015\PROJECTS\ARRAYS\ARRAYS\X64\RELEASE\ARRAYS.OBJ
C:\USERS\Алик\DOCUMENTS\VISUAL STUDIO 2015\PROJECTS\ARRAYS\ARRAYS\X64\RELEASE\MYARRAY.OBJ
C:\USERS\Алик\DOCUMENTS\VISUAL STUDIO 2015\PROJECTS\ARRAYS\ARRAYS\X64\RELEASE\STDAFX.OBJ
D:\ALIK\VISUAL STUDIO\VC\BIN\X86_AMD64\C2.DLL
D:\ALIK\VISUAL STUDIO\VC\LIB\AMD64\MSVCPRT.LIB
D:\ALIK\VISUAL STUDIO\VC\LIB\AMD64\MSVCRT.LIB
D:\ALIK\VISUAL STUDIO\VC\LIB\AMD64\OLDNAMES.LIB
D:\ALIK\VISUAL STUDIO\VC\LIB\AMD64\VCRUNTIME.LIB
C:\PROGRAM FILES (X86)\WINDOWS KITS\10\LIB\10.0.10240.0\UCRT\X64\UCRT.LIB
D:\ALIK\VISUAL STUDIO\VC\BIN\X86_AMD64\1049\LINKUI.DLL
C:\PROGRAM FILES (X86)\WINDOWS KITS\8.1\BIN\X86\RC.EXE
D:\ALIK\VISUAL STUDIO\VC\BIN\CVTRES.EXE
D:\ALIK\VISUAL STUDIO\VC\BIN\MSPDBSRV.EXE
C:\WINDOWS\SYSTEM32\TZRES.DLL
D:\ALIK\VISUAL STUDIO\VC\BIN\X86_AMD64\VCTIP.EXE
C:\WINDOWS\SYSTEM32\RSAENH.DLL
